{
    "name":"DB-Baureihe 423/433",
    "mass":119400.0,
    "maxVelocity":140.0,
    "maxAcceleration":1.0,
    "velocityUnit":"kmh",
    "formatVersion":"0.4.0",
    "maxPower":2350.0,
    "powerUnit":"kW",
    "trackDrag":0.2
}
